{
  "shell_port": 57583,
  "iopub_port": 39083,
  "stdin_port": 35425,
  "control_port": 39971,
  "hb_port": 57645,
  "ip": "127.0.0.1",
  "key": "62354952-7b809f052b38c683334d169c",
  "transport": "tcp",
  "signature_scheme": "hmac-sha256",
  "kernel_name": ""
}